# Blender MTL File: 'low+poly+forest+assets+1+.blend'
# Material Count: 1

newmtl Material.001
Ns 96.078431
Ka 1.000000 1.000000 1.000000
Kd 0.640000 0.328871 0.036458
Ks 0.500000 0.315046 0.000000
Ke 0.000000 0.000000 0.000000
Ni 1.000000
d 1.000000
illum 2
